{
  "propertyPanelToggleStates" : {

  },
  "deviceOrientation" : 0,
  "sharedPrototype" : 0,
  "contentScale" : 1,
  "deviceType" : "fullscreen",
  "selectedHand" : "",
  "updateDelay" : 0.3,
  "deviceScale" : 1,
  "foldedCodeRanges" : [

  ],
  "orientation" : 0,
  "projectId" : "0657AFC2-E94D-4114-B034-4E5F17D0C744"
}