{
  "orientation" : 0,
  "updateDelay" : 0.3,
  "designModeSelected" : 0,
  "cachedDeviceHeight" : 667,
  "contentScale" : 1,
  "fullScreen" : false,
  "cachedDeviceWidth" : 375,
  "deviceType" : "apple-iphone-7-black",
  "sharedPrototype" : 0,
  "propertyPanelToggleStates" : {

  },
  "projectId" : "75D3F5A9-B90D-49B3-A5C1-EFE66BC52988",
  "deviceOrientation" : 0,
  "selectedHand" : "",
  "showBezel" : 0,
  "foldedCodeRanges" : [

  ],
  "deviceScale" : "fit"
}