{
  "_class": "group",
  "do_objectID": "7ECDF70E-2EAE-4680-8E1F-6DC901BCA349",
  "exportOptions": {
    "_class": "exportOptions",
    "exportFormats": [
    ],
    "includedLayerIds": [
    ],
    "layerOptions": 0,
    "shouldTrim": false
  },
  "frame": {
    "_class": "rect",
    "constrainProportions": false,
    "height": 40,
    "width": 220,
    "x": 0,
    "y": 0
  },
  "hasClickThrough": false,
  "isFlippedHorizontal": false,
  "isFlippedVertical": false,
  "isLocked": false,
  "isVisible": true,
  "layerListExpandedType": 0,
  "layers": [
    {
      "class": "shapeGroup",
      "id": "84679249-386A-40F7-B6A9-E4B017AEF266"
    },
    {
      "class": "text",
      "id": "4683B760-9EB0-4DBE-BB5D-CA28B26AA175"
    },
    {
      "class": "group",
      "id": "B0FD8E98-041F-44DA-BD0C-89465AF8FAE3"
    }
  ],
  "name": "💡tab",
  "nameIsFixed": false,
  "resizingConstraint": 63,
  "resizingType": 0,
  "rotation": 0,
  "shouldBreakMaskChain": false,
  "style": {
    "_class": "style",
    "endDecorationType": 0,
    "miterLimit": 10,
    "startDecorationType": 0
  }
}