{
  "_class": "group",
  "do_objectID": "316D0F60-7853-4527-9925-93F005DD0401",
  "exportOptions": {
    "_class": "exportOptions",
    "exportFormats": [
    ],
    "includedLayerIds": [
    ],
    "layerOptions": 0,
    "shouldTrim": false
  },
  "frame": {
    "_class": "rect",
    "constrainProportions": false,
    "height": 24,
    "width": 549,
    "x": 359,
    "y": 64
  },
  "hasClickThrough": false,
  "isFlippedHorizontal": false,
  "isFlippedVertical": false,
  "isLocked": false,
  "isVisible": true,
  "layerListExpandedType": 0,
  "layers": [
    {
      "class": "shapeGroup",
      "id": "434DC9B2-5168-4BB2-9637-B912024E7B47"
    },
    {
      "class": "text",
      "id": "9D39D955-7A13-4780-9B9D-5A8B609A087C"
    }
  ],
  "name": "gitlab-org$03 · Setu",
  "nameIsFixed": false,
  "resizingConstraint": 63,
  "resizingType": 0,
  "rotation": 0,
  "shouldBreakMaskChain": false,
  "style": {
    "_class": "style",
    "endDecorationType": 0,
    "miterLimit": 10,
    "startDecorationType": 0
  }
}