{
  "_class": "group",
  "do_objectID": "DD3A7B00-B1DD-4235-8D96-05E23B4A6FD6",
  "exportOptions": {
    "_class": "exportOptions",
    "exportFormats": [
    ],
    "includedLayerIds": [
    ],
    "layerOptions": 0,
    "shouldTrim": false
  },
  "frame": {
    "_class": "rect",
    "constrainProportions": false,
    "height": 440,
    "width": 220,
    "x": 0,
    "y": 0
  },
  "hasClickThrough": false,
  "isFlippedHorizontal": false,
  "isFlippedVertical": false,
  "isLocked": false,
  "isVisible": true,
  "layerListExpandedType": 2,
  "layers": [
    {
      "class": "symbolInstance",
      "id": "F0A9B38A-7F11-4833-BFA4-D4BE2B20C4B8"
    },
    {
      "class": "symbolInstance",
      "id": "0D44D7C9-640B-4F89-81F0-10039F90D7B1"
    },
    {
      "class": "symbolInstance",
      "id": "F7CD6550-E56C-4CA4-8BF6-4D951D683049"
    },
    {
      "class": "symbolInstance",
      "id": "53575130-7FEC-484E-AF92-2C4903D5DA92"
    },
    {
      "class": "symbolInstance",
      "id": "012DA48D-5D14-4424-92C3-BF36BAB21CC5"
    },
    {
      "class": "symbolInstance",
      "id": "06C4E566-3AAD-4218-96C2-CEF59C9E1E6B"
    },
    {
      "class": "symbolInstance",
      "id": "1F239699-6431-4474-A4E0-1B8144562E8D"
    },
    {
      "class": "symbolInstance",
      "id": "C1913CD2-6F7D-4E93-A0D1-A5A4EEE17FF5"
    },
    {
      "class": "symbolInstance",
      "id": "6FE61ED9-9E7C-4598-BD52-8752E053A17E"
    },
    {
      "class": "group",
      "id": "FD875A50-97B7-4F72-96C1-AB91EC2CEEF0"
    },
    {
      "class": "symbolInstance",
      "id": "527F0E86-B471-43FA-B551-FDF49FBA893C"
    },
    {
      "class": "symbolInstance",
      "id": "3A4ED849-D782-4489-8D7B-025D12BE29D0"
    }
  ],
  "name": "top-aligned",
  "nameIsFixed": true,
  "resizingConstraint": 11,
  "resizingType": 0,
  "rotation": 0,
  "shouldBreakMaskChain": false,
  "style": {
    "_class": "style",
    "endDecorationType": 0,
    "miterLimit": 10,
    "startDecorationType": 0
  }
}