{
  "_class": "group",
  "do_objectID": "F5D6E595-2B39-4289-B0AF-352F0B010B01",
  "exportOptions": {
    "_class": "exportOptions",
    "exportFormats": [
    ],
    "includedLayerIds": [
    ],
    "layerOptions": 0,
    "shouldTrim": false
  },
  "frame": {
    "_class": "rect",
    "constrainProportions": false,
    "height": 558,
    "width": 9,
    "x": 930,
    "y": 149
  },
  "hasClickThrough": false,
  "isFlippedHorizontal": false,
  "isFlippedVertical": false,
  "isLocked": false,
  "isVisible": true,
  "layerListExpandedType": 2,
  "layers": [
    {
      "class": "shapeGroup",
      "id": "947F3C13-4AA5-4CF3-9E51-F10B7256CA57"
    },
    {
      "class": "shapeGroup",
      "id": "E8969932-111F-46CD-8C99-20643A4E3955"
    }
  ],
  "name": "Today",
  "nameIsFixed": true,
  "resizingConstraint": 63,
  "resizingType": 0,
  "rotation": 0,
  "shouldBreakMaskChain": false,
  "style": {
    "_class": "style",
    "endDecorationType": 0,
    "miterLimit": 10,
    "startDecorationType": 0
  }
}