{
  "_class": "group",
  "do_objectID": "453C1388-A24D-4844-95E3-0D259BAC6616",
  "exportOptions": {
    "_class": "exportOptions",
    "exportFormats": [
    ],
    "includedLayerIds": [
    ],
    "layerOptions": 0,
    "shouldTrim": false
  },
  "frame": {
    "_class": "rect",
    "constrainProportions": false,
    "height": 40,
    "width": 1500,
    "x": 0,
    "y": 0
  },
  "hasClickThrough": false,
  "isFlippedHorizontal": false,
  "isFlippedVertical": false,
  "isLocked": false,
  "isVisible": true,
  "layerListExpandedType": 0,
  "layers": [
    {
      "class": "shapeGroup",
      "id": "A72037AD-82F8-48E3-BBEB-89DC09AA3DD0"
    },
    {
      "class": "group",
      "id": "DA767BE1-B2A2-4C88-A939-BAA955AAC969"
    },
    {
      "class": "group",
      "id": "B4393BD0-6A20-4A12-8B0A-404E7EB1B11B"
    }
  ],
  "name": "topbar",
  "nameIsFixed": true,
  "resizingConstraint": 63,
  "resizingType": 0,
  "rotation": 0,
  "shouldBreakMaskChain": false,
  "style": {
    "_class": "style",
    "endDecorationType": 0,
    "miterLimit": 10,
    "startDecorationType": 0
  }
}