{
  "_class": "group",
  "do_objectID": "F3FEBC7F-E0F0-40AB-BCF2-34BA6F747348",
  "exportOptions": {
    "_class": "exportOptions",
    "exportFormats": [
    ],
    "includedLayerIds": [
    ],
    "layerOptions": 0,
    "shouldTrim": false
  },
  "frame": {
    "_class": "rect",
    "constrainProportions": false,
    "height": 24,
    "width": 633,
    "x": 0,
    "y": 12
  },
  "hasClickThrough": false,
  "isFlippedHorizontal": false,
  "isFlippedVertical": false,
  "isLocked": false,
  "isVisible": true,
  "layerListExpandedType": 0,
  "layers": [
    {
      "class": "text",
      "id": "FA6285D6-63FF-4F4A-9726-712FA814BADE"
    },
    {
      "class": "text",
      "id": "198A7DEC-CAA8-42CC-846E-310B08EE9AA2"
    },
    {
      "class": "shapeGroup",
      "id": "EF6D0B76-E60A-4169-8AB0-BC5F2713A69A"
    },
    {
      "class": "text",
      "id": "27F753D2-A2E9-4A9F-B7D9-E23714868373"
    },
    {
      "class": "text",
      "id": "754CAFE7-0964-4445-B878-AD3580EEE0EC"
    },
    {
      "class": "symbolInstance",
      "id": "6F70810D-FFC1-40EA-BA91-D0211F987D64"
    }
  ],
  "name": "left-aligned",
  "nameIsFixed": true,
  "resizingConstraint": 9,
  "resizingType": 0,
  "rotation": 0,
  "shouldBreakMaskChain": false,
  "style": {
    "_class": "style",
    "endDecorationType": 0,
    "miterLimit": 10,
    "startDecorationType": 0
  }
}