{
  "_class": "group",
  "do_objectID": "6D692F4D-ED16-4DAD-A3BA-ACB2F12AE937",
  "exportOptions": {
    "_class": "exportOptions",
    "exportFormats": [
    ],
    "includedLayerIds": [
    ],
    "layerOptions": 0,
    "shouldTrim": false
  },
  "frame": {
    "_class": "rect",
    "constrainProportions": false,
    "height": 8,
    "width": 37,
    "x": 0,
    "y": 0
  },
  "hasClickThrough": false,
  "isFlippedHorizontal": true,
  "isFlippedVertical": false,
  "isLocked": false,
  "isVisible": true,
  "layerListExpandedType": 0,
  "layers": [
    {
      "class": "shapeGroup",
      "id": "E6DB05B5-4192-4F8F-ACFC-ED9B65D2BDBC"
    },
    {
      "class": "shapeGroup",
      "id": "DB8DC7C3-4160-4DB9-AA67-EAFA3C87F701"
    },
    {
      "class": "shapeGroup",
      "id": "5C6DC27B-C13D-4A37-A43F-DC00149548BE"
    }
  ],
  "name": "Group 15",
  "nameIsFixed": false,
  "resizingConstraint": 63,
  "resizingType": 0,
  "rotation": 0,
  "shouldBreakMaskChain": false,
  "style": {
    "_class": "style",
    "endDecorationType": 0,
    "miterLimit": 10,
    "startDecorationType": 0
  }
}