<?xml version="1.0" encoding="UTF-8"?>
<svg width="32px" height="32px" viewBox="0 0 32 32" version="1.1" xmlns="http://www.w3.org/2000/svg" xmlns:xlink="http://www.w3.org/1999/xlink">
    <!-- Generator: Sketch 50.2 (55047) - http://www.bohemiancoding.com/sketch -->
    <title>Cursor/Help</title>
    <desc>Created with Sketch.</desc>
    <defs>
        <filter x="-29.1%" y="-14.7%" width="158.2%" height="142.7%" filterUnits="objectBoundingBox" id="filter-1">
            <feOffset dx="0" dy="1" in="SourceAlpha" result="shadowOffsetOuter1"></feOffset>
            <feGaussianBlur stdDeviation="0.9" in="shadowOffsetOuter1" result="shadowBlurOuter1"></feGaussianBlur>
            <feColorMatrix values="0 0 0 0 0   0 0 0 0 0   0 0 0 0 0  0 0 0 0.65 0" type="matrix" in="shadowBlurOuter1" result="shadowMatrixOuter1"></feColorMatrix>
            <feMerge>
                <feMergeNode in="shadowMatrixOuter1"></feMergeNode>
                <feMergeNode in="SourceGraphic"></feMergeNode>
            </feMerge>
        </filter>
    </defs>
    <g id="Cursor/Help" stroke="none" stroke-width="1" fill="none" fill-rule="evenodd">
        <g id="ask" filter="url(#filter-1)" transform="translate(10.000000, 8.000000)" fill-rule="nonzero">
            <path d="M2.67513626,2.09926618 L2.72211019,2.0638852 C3.67069686,1.39219223 4.79948557,1.02154519 5.91448459,1.00214844 C7.32616686,0.909462369 8.707732,1.43906234 9.62463544,2.38550988 C10.5730886,3.1852671 11.0767189,4.39397982 10.9799945,5.54667404 C10.9828882,6.41671472 10.7020282,7.2639758 10.1544308,7.99265859 C9.7611395,8.47408244 9.30405445,8.89964438 8.85004086,9.21656199 L8.30624896,9.65755141 C8.17977407,9.7565164 8.0831592,9.88855673 8.04384813,9.99028944 C7.9841156,10.1349182 7.99113608,10.3701371 8,10.5644248 L8,11.61 L4,11.6100006 L3.98227275,10.677382 C3.93588808,9.99056284 3.97400499,9.30064673 4.1111973,8.55216675 C4.20910483,8.16943732 4.4086654,7.84884135 4.70134551,7.54518688 C4.89994852,7.33913702 5.04768983,7.21649415 5.52035571,6.84511723 L6.11744251,6.37447183 C6.27661805,6.25738015 6.42038945,6.12067946 6.49735243,6.03144835 C6.59957283,5.88354383 6.66002747,5.71081627 6.67030457,5.57532128 C6.67340981,5.44953296 6.63166118,5.3267429 6.51030196,5.17279589 C6.390085,5.00075972 6.18505341,4.90870472 5.91526308,4.93847183 C5.66056558,4.95256874 5.42088352,5.06346641 5.27303702,5.21797815 C5.09106373,5.42624133 4.98731223,5.69138405 4.97961236,5.96784117 L4.95253583,6.94 L1.05819118,6.94 L0.983305269,6.02123801 C0.860453932,4.51399673 1.49447963,3.0442099 2.67513626,2.09926618 Z" id="Shape-border" fill="#FFFFFF"></path>
            <path d="M3.3,2.88 C4.08475478,2.32431618 5.01858862,2.01768417 5.98,2 C7.10001238,1.92646394 8.19613018,2.34664243 8.98,3.15 C9.68146011,3.74148711 10.0539367,4.63543089 9.98,5.55 C9.9821703,6.20253051 9.77152528,6.83797632 9.38,7.36 C9.0442074,7.77104025 8.65394765,8.13438554 8.22,8.44 L7.69,8.87 C7.41815169,9.08271785 7.21048523,9.36652867 7.09,9.69 C7.02638245,9.87986755 6.98579638,10.2986715 7,10.61 L5,10.61 C4.95913075,10.0048478 4.97271533,9.3969669 5.08,8.8 C5.19,8.37 5.58,8.07 6.14,7.63 L6.71,7.18 C6.9369098,7.01308206 7.14186053,6.81821087 7.32,6.6 C7.52444079,6.30419096 7.64535008,5.95873584 7.67,5.6 C7.67896418,5.23687522 7.55844458,4.8824058 7.33,4.6 C6.99887609,4.126146 6.43413995,3.872591 5.86,3.94 C5.35060499,3.96819382 4.87124087,4.18998916 4.52,4.56 C4.18510799,4.94327424 3.99417036,5.43122598 3.98,5.94 L1.98,5.94 C1.88757914,4.79678861 2.35317486,3.67935889 3.23,2.94" id="Shape" fill="#000000"></path>
            <polygon id="dot-border" fill="#FFFFFF" points="8 11 8 15 4 15 4 11"></polygon>
            <rect id="dot" fill="#000000" x="5" y="12" width="2" height="2"></rect>
        </g>
    </g>
</svg>