{
  "_class": "group",
  "do_objectID": "622AFCA8-0447-4299-B783-7A7AFF9F4960",
  "exportOptions": {
    "_class": "exportOptions",
    "exportFormats": [
    ],
    "includedLayerIds": [
    ],
    "layerOptions": 0,
    "shouldTrim": false
  },
  "frame": {
    "_class": "rect",
    "constrainProportions": false,
    "height": 40,
    "width": 1246,
    "x": 237,
    "y": 220
  },
  "hasClickThrough": false,
  "isFlippedHorizontal": false,
  "isFlippedVertical": false,
  "isLocked": false,
  "isVisible": true,
  "layerListExpandedType": 0,
  "layers": [
    {
      "class": "group",
      "id": "73D18D9D-728C-4790-B66F-6ADE99D17A6F"
    },
    {
      "class": "group",
      "id": "F7146D11-8E47-444A-8258-DCD4BBF6FAE5"
    },
    {
      "class": "group",
      "id": "5C8A8D2D-42A6-4FB9-85F2-D820927A082D"
    },
    {
      "class": "group",
      "id": "1DFCCC3B-4E76-49F8-ACCD-C18970EDF558"
    },
    {
      "class": "group",
      "id": "EDAE769F-2FAF-4FAD-8E9D-B086D68818D7"
    },
    {
      "class": "group",
      "id": "29EE8C00-A903-4A59-8C83-C9A3DB8F977B"
    },
    {
      "class": "group",
      "id": "DFDFF157-AA5F-4569-B8D8-0D30B27932CE"
    }
  ],
  "name": "row",
  "nameIsFixed": true,
  "resizingConstraint": 63,
  "resizingType": 0,
  "rotation": 0,
  "shouldBreakMaskChain": false,
  "style": {
    "_class": "style",
    "endDecorationType": 0,
    "miterLimit": 10,
    "startDecorationType": 0
  }
}