<?xml version="1.0" encoding="UTF-8"?>
<svg width="32px" height="32px" viewBox="0 0 32 32" version="1.1" xmlns="http://www.w3.org/2000/svg" xmlns:xlink="http://www.w3.org/1999/xlink">
    <!-- Generator: Sketch 49.3 (51167) - http://www.bohemiancoding.com/sketch -->
    <title>Cursor/Hand/Closed</title>
    <desc>Created with Sketch.</desc>
    <defs>
        <filter x="-12.1%" y="-7.5%" width="124.3%" height="138.3%" filterUnits="objectBoundingBox" id="filter-1">
            <feOffset dx="0" dy="1" in="SourceAlpha" result="shadowOffsetOuter1"></feOffset>
            <feGaussianBlur stdDeviation="0.4" in="shadowOffsetOuter1" result="shadowBlurOuter1"></feGaussianBlur>
            <feColorMatrix values="0 0 0 0 0   0 0 0 0 0   0 0 0 0 0  0 0 0 0.5 0" type="matrix" in="shadowBlurOuter1" result="shadowMatrixOuter1"></feColorMatrix>
            <feMerge>
                <feMergeNode in="shadowMatrixOuter1"></feMergeNode>
                <feMergeNode in="SourceGraphic"></feMergeNode>
            </feMerge>
        </filter>
    </defs>
    <g id="Cursor/Hand/Closed" stroke="none" stroke-width="1" fill="none" fill-rule="evenodd">
        <g id="close" filter="url(#filter-1)" transform="translate(9.000000, 10.000000)">
            <path d="M3,1.15 C3.48,0.97 4.43,1.08 4.68,1.62 C4.93,2.16 5.08,2.86 5.09,2.69 C5.07086804,2.17329768 5.11452056,1.65618318 5.22,1.15 C5.33114926,0.825814673 5.58581467,0.571149255 5.91,0.46 C6.20731645,0.365971308 6.52298933,0.345383946 6.83,0.4 C7.14041422,0.463898079 7.41534873,0.642426984 7.6,0.9 C7.83394824,1.48313157 7.96587081,2.10215289 7.99,2.73 C8.01487442,2.19425476 8.10555534,1.66360349 8.26,1.15 C8.42710411,0.914549207 8.67113222,0.744790521 8.95,0.67 C9.28059315,0.609555122 9.61940685,0.609555122 9.95,0.67 C10.2213875,0.760058203 10.4586915,0.93105669 10.63,1.16 C10.8423937,1.69015132 10.9706081,2.25024586 11.01,2.82 C11.01,2.96 11.08,2.43 11.3,2.08 C11.4767311,1.55532949 12.0453295,1.27326888 12.57,1.45 C13.0946705,1.62673112 13.3767311,2.19532949 13.2,2.72 C13.2,3.37 13.2,3.34 13.2,3.78 C13.2,4.22 13.2,4.61 13.2,4.98 C13.1639756,5.56522059 13.0837468,6.14687905 12.96,6.72 C12.7864364,7.22731294 12.5441837,7.7084538 12.24,8.15 C11.7545692,8.69005772 11.3533885,9.30025696 11.05,9.96 C10.9759844,10.2880037 10.9424013,10.6238349 10.95,10.96 C10.9489965,11.270633 10.989351,11.5800173 11.07,11.88 C10.661163,11.9236728 10.248837,11.9236728 9.84,11.88 C9.45,11.82 8.97,11.04 8.84,10.8 C8.77567789,10.6711326 8.64402823,10.5897056 8.5,10.5897056 C8.35597177,10.5897056 8.22432211,10.6711326 8.16,10.8 C7.94,11.18 7.45,11.87 7.16,11.91 C6.49,11.99 5.1,11.91 4.02,11.91 C4.02,11.91 4.21,10.91 3.79,10.55 C3.37,10.19 2.96,9.77 2.65,9.49 L1.82,8.57 C1.23469098,8.02667867 0.806381265,7.33585654 0.58,6.57 C0.37,5.63 0.39,5.18 0.58,4.8 C0.773789319,4.48620462 1.07639241,4.25480226 1.43,4.15 C1.72376983,4.09670806 2.02618232,4.11732709 2.31,4.21 C2.50626707,4.29216695 2.67589059,4.42717342 2.8,4.6 C3.03,4.91 3.11,5.06 3.01,4.72 C2.91,4.38 2.69,4.13 2.58,3.72 C2.36585204,3.23579742 2.23728112,2.71813029 2.2,2.19 C2.24098152,1.71616508 2.57182212,1.31756195 3.03,1.19" id="Shape" fill="#FFFFFF" fill-rule="nonzero"></path>
            <path d="M3,1.15 C3.48,0.97 4.43,1.08 4.68,1.62 C4.93,2.16 5.08,2.86 5.09,2.69 C5.07086804,2.17329768 5.11452056,1.65618318 5.22,1.15 C5.33114926,0.825814673 5.58581467,0.571149255 5.91,0.46 C6.20731645,0.365971308 6.52298933,0.345383946 6.83,0.4 C7.14041422,0.463898079 7.41534873,0.642426984 7.6,0.9 C7.83394824,1.48313157 7.96587081,2.10215289 7.99,2.73 C8.01487442,2.19425476 8.10555534,1.66360349 8.26,1.15 C8.42710411,0.914549207 8.67113222,0.744790521 8.95,0.67 C9.28059315,0.609555122 9.61940685,0.609555122 9.95,0.67 C10.2213875,0.760058203 10.4586915,0.93105669 10.63,1.16 C10.8423937,1.69015132 10.9706081,2.25024586 11.01,2.82 C11.01,2.96 11.08,2.43 11.3,2.08 C11.4767311,1.55532949 12.0453295,1.27326888 12.57,1.45 C13.0946705,1.62673112 13.3767311,2.19532949 13.2,2.72 C13.2,3.37 13.2,3.34 13.2,3.78 C13.2,4.22 13.2,4.61 13.2,4.98 C13.1639756,5.56522059 13.0837468,6.14687905 12.96,6.72 C12.7864364,7.22731294 12.5441837,7.7084538 12.24,8.15 C11.7545692,8.69005772 11.3533885,9.30025696 11.05,9.96 C10.9759844,10.2880037 10.9424013,10.6238349 10.95,10.96 C10.9489965,11.270633 10.989351,11.5800173 11.07,11.88 C10.661163,11.9236728 10.248837,11.9236728 9.84,11.88 C9.45,11.82 8.97,11.04 8.84,10.8 C8.77567789,10.6711326 8.64402823,10.5897056 8.5,10.5897056 C8.35597177,10.5897056 8.22432211,10.6711326 8.16,10.8 C7.94,11.18 7.45,11.87 7.16,11.91 C6.49,11.99 5.1,11.91 4.02,11.91 C4.02,11.91 4.21,10.91 3.79,10.55 C3.37,10.19 2.96,9.77 2.65,9.49 L1.82,8.57 C1.23469098,8.02667867 0.806381265,7.33585654 0.58,6.57 C0.37,5.63 0.39,5.18 0.58,4.8 C0.773789319,4.48620462 1.07639241,4.25480226 1.43,4.15 C1.72376983,4.09670806 2.02618232,4.11732709 2.31,4.21 C2.50626707,4.29216695 2.67589059,4.42717342 2.8,4.6 C3.03,4.91 3.11,5.06 3.01,4.72 C2.91,4.38 2.69,4.13 2.58,3.72 C2.36585204,3.23579742 2.23728112,2.71813029 2.2,2.19 C2.22044626,1.70923503 2.54056468,1.29308108 3,1.15 Z" id="Shape" stroke="#000000" stroke-width="0.75" stroke-linejoin="round"></path>
            <path d="M10.75,8.82589056 L10.75,5.37410925 C10.75,5.16749441 10.5821068,5 10.375,5 C10.1678932,5 10,5.16749441 10,5.37410925 L10,8.82589056 C10,9.03250539 10.1678932,9.19999981 10.375,9.19999981 C10.5821068,9.19999981 10.75,9.03250539 10.75,8.82589056 Z" id="Shape" fill="#000000" fill-rule="nonzero"></path>
            <path d="M8.76999391,8.82462586 L8.74999391,5.37107174 C8.74880023,5.16494995 8.57994213,4.99881831 8.37283879,5.00000633 C8.16573545,5.00119435 7.99881268,5.16925216 8.00000636,5.37537395 L8.02000636,8.82892807 C8.02120004,9.03504986 8.19005814,9.2011815 8.39716148,9.19999348 C8.60426482,9.19880546 8.77118758,9.03074765 8.76999391,8.82462586 Z" id="Shape" fill="#000000" fill-rule="nonzero"></path>
            <path d="M6.00000655,5.37990666 L6.02000655,8.82451059 C6.02121768,9.03310376 6.19008984,9.20121306 6.39719308,9.19999321 C6.60429632,9.19877337 6.77120486,9.02868632 6.76999373,8.82009315 L6.74999373,5.37548922 C6.7487826,5.16689605 6.57991043,4.99878675 6.37280719,5.0000066 C6.16570395,5.00122644 5.99879542,5.17131349 6.00000655,5.37990666 Z" id="Shape" fill="#000000" fill-rule="nonzero"></path>
        </g>
    </g>
</svg>