{
  "_class": "shapeGroup",
  "clippingMaskMode": 0,
  "do_objectID": "A264B8BA-E4E0-4192-9E51-258E3227BB79",
  "exportOptions": {
    "_class": "exportOptions",
    "exportFormats": [
    ],
    "includedLayerIds": [
    ],
    "layerOptions": 0,
    "shouldTrim": false
  },
  "frame": {
    "_class": "rect",
    "constrainProportions": false,
    "height": 4,
    "width": 8,
    "x": 44,
    "y": 24
  },
  "hasClickThrough": false,
  "hasClippingMask": false,
  "isFlippedHorizontal": false,
  "isFlippedVertical": false,
  "isLocked": false,
  "isVisible": true,
  "layerListExpandedType": 1,
  "layers": [
    {
      "class": "triangle",
      "id": "34B7727D-4A9A-4DF6-8B08-59B0E1DC5880"
    }
  ],
  "name": "Triangle",
  "nameIsFixed": false,
  "resizingConstraint": 37,
  "resizingType": 0,
  "rotation": 0,
  "shouldBreakMaskChain": false,
  "style": {
    "sharedObjectID": "FBAAE206-1B7D-4559-A64D-AF713EE8FE68"
  },
  "windingRule": 1
}