{
  "_class": "group",
  "do_objectID": "0FC2329E-2ACD-4D20-AA82-7EA7F42DE55A",
  "exportOptions": {
    "_class": "exportOptions",
    "exportFormats": [
    ],
    "includedLayerIds": [
    ],
    "layerOptions": 0,
    "shouldTrim": false
  },
  "frame": {
    "_class": "rect",
    "constrainProportions": false,
    "height": 23.80165289256198,
    "width": 26,
    "x": 0,
    "y": 0
  },
  "hasClickThrough": false,
  "isFlippedHorizontal": false,
  "isFlippedVertical": false,
  "isLocked": false,
  "isVisible": true,
  "layerListExpandedType": 0,
  "layers": [
    {
      "class": "shapeGroup",
      "id": "8BCD1D1A-70B9-4E2E-8F1B-21CC9FB8B34F"
    },
    {
      "class": "shapeGroup",
      "id": "EB136243-A1FB-4798-A18C-C9307BDBAAD6"
    },
    {
      "class": "shapeGroup",
      "id": "2CF703C3-9B03-4145-B861-F6CAFFF63F5C"
    },
    {
      "class": "shapeGroup",
      "id": "576FB668-6551-49AC-B2A9-81C75E8138D8"
    },
    {
      "class": "shapeGroup",
      "id": "A7E7D073-0BAB-436D-B6EC-5F2DF86D971F"
    },
    {
      "class": "shapeGroup",
      "id": "4BEF9D09-F755-468B-B997-F765974C66D2"
    },
    {
      "class": "shapeGroup",
      "id": "74DDD97F-3787-4886-B3D9-0064074DB3F7"
    }
  ],
  "name": "Group",
  "nameIsFixed": false,
  "resizingConstraint": 63,
  "resizingType": 0,
  "rotation": 0,
  "shouldBreakMaskChain": false,
  "style": {
    "_class": "style",
    "endDecorationType": 0,
    "miterLimit": 10,
    "startDecorationType": 0
  }
}