{
  "_class": "shapeGroup",
  "clippingMaskMode": 0,
  "do_objectID": "00973290-0612-49DE-AFB1-2A42E1DFBB07",
  "exportOptions": {
    "_class": "exportOptions",
    "exportFormats": [
    ],
    "includedLayerIds": [
    ],
    "layerOptions": 0,
    "shouldTrim": false
  },
  "frame": {
    "_class": "rect",
    "constrainProportions": false,
    "height": 16,
    "width": 14,
    "x": 1,
    "y": 0
  },
  "hasClickThrough": false,
  "hasClippingMask": true,
  "isFlippedHorizontal": false,
  "isFlippedVertical": false,
  "isLocked": false,
  "isVisible": true,
  "layerListExpandedType": 1,
  "layers": [
    {
      "class": "shapePath",
      "id": "E6CBDC8A-D700-4A0C-A634-DF56E0A767CF"
    },
    {
      "class": "shapePath",
      "id": "3A36B5DA-D069-462D-A009-08ABDFBC0B27"
    },
    {
      "class": "rectangle",
      "id": "7C0DD30E-36F6-4E53-B162-5664EBF7A6A0"
    },
    {
      "class": "rectangle",
      "id": "18A8FC21-BB44-4528-8030-B56A15708DF5"
    },
    {
      "class": "rectangle",
      "id": "BC838FD4-151E-4C78-89CD-8F62DC8CD677"
    },
    {
      "class": "shapePath",
      "id": "19ED29B4-3925-42F4-8241-BB550E03FDFA"
    }
  ],
  "name": "Combined Shape",
  "nameIsFixed": false,
  "resizingConstraint": 63,
  "resizingType": 0,
  "rotation": 0,
  "shouldBreakMaskChain": false,
  "style": {
    "_class": "style",
    "endDecorationType": 0,
    "fills": [
      {
        "_class": "fill",
        "color": {
          "_class": "color",
          "alpha": 1,
          "blue": 0,
          "green": 0,
          "red": 0
        },
        "fillType": 0,
        "isEnabled": true,
        "noiseIndex": 0,
        "noiseIntensity": 0,
        "patternFillType": 1,
        "patternTileScale": 1
      }
    ],
    "miterLimit": 10,
    "startDecorationType": 0
  },
  "windingRule": 0
}